module template

go 1.17

require (
	cloud.google.com/go/storage v1.21.0
	github.com/joho/godotenv v1.4.0
	google.golang.org/api v0.69.0
)

require (
	cloud.google.com/go v0.100.2 // indirect
	cloud.google.com/go/compute v1.2.0 // indirect
	cloud.google.com/go/iam v0.1.1 // indirect
	github.com/golang/groupcache v0.0.0-20200121045136-8c9f03a8e57e // indirect
	github.com/golang/protobuf v1.5.2 // indirect
	github.com/google/go-cmp v0.5.7 // indirect
	github.com/googleapis/gax-go/v2 v2.1.1 // indirect
	go.opencensus.io v0.23.0 // indirect
	golang.org/x/net v0.0.0-20220127200216-cd36cc0744dd // indirect
	golang.org/x/oauth2 v0.0.0-20211104180415-d3ed0bb246c8 // indirect
	golang.org/x/sys v0.0.0-20220209214540-3681064d5158 // indirect
	golang.org/x/text v0.3.7 // indirect
	golang.org/x/xerrors v0.0.0-20200804184101-5ec99f83aff1 // indirect
	google.golang.org/appengine v1.6.7 // indirect
	google.golang.org/genproto v0.0.0-20220216160803-4663080d8bc8 // indirect
	google.golang.org/grpc v1.44.0 // indirect
	google.golang.org/protobuf v1.27.1 // indirect
)
